{
  "restartable": "rs",
  "ignore": [
    ".git",
    "node_modules/**/node_modules",
    "src/public/css/dist.css"
  ],
  "verbose": true,
  "execMap": {
    "js": "postcss src/public/css/main.css -o src/public/css/dist.css && node src/index.dev.js"
  },
  "events": {
    "restart": "osascript -e 'display notification \"App restarted due to:\n'$FILENAME'\" with title \"nodemon\"'"
  },
  "watch": [
    "src/",
    "src/public/css/main.css"
  ],
  "ext": "js,json,css"
}